…
### Flight speeds?

The goal is to find mean flight speeds for each route.

- Add a `speed` column (calculated from `distance` and `air_time`)

```r
# Use the original flight data (including missing tailnum's)
f <- flights
f %>% mutate( speed = distance / air_time ) %>% select( origin, dest, speed, everything() ) 
```

```
# A tibble: 336,776 x 20
   origin dest  speed  year month   day dep_time sched_dep_time dep_delay
   <chr>  <chr> <dbl> <int> <int> <int>    <int>          <int>     <dbl>
 1 EWR    IAH    6.17  2013     1     1      517            515         2
 2 LGA    IAH    6.24  2013     1     1      533            529         4
 3 JFK    MIA    6.81  2013     1     1      542            540         2
 4 JFK    BQN    8.61  2013     1     1      544            545        -1
 5 LGA    ATL    6.57  2013     1     1      554            600        -6
 6 EWR    ORD    4.79  2013     1     1      554            558        -4
 7 EWR    FLL    6.74  2013     1     1      555            600        -5
 8 LGA    IAD    4.32  2013     1     1      557            600        -3
 9 JFK    MCO    6.74  2013     1     1      557            600        -3
10 LGA    ORD    5.31  2013     1     1      558            600        -2
# … with 336,766 more rows, and 11 more variables: arr_time <int>,
#   sched_arr_time <int>, arr_delay <dbl>, carrier <chr>, flight <int>,
#   tailnum <chr>, air_time <dbl>, distance <dbl>, hour <dbl>, minute <dbl>,
#   time_hour <dttm>
```

- For each route calculate the mean speed (put it to column `meanSpeed`)


```r
# Some of the (origin,dest) pairs will result in speeds with NA as value. 
# This is due to missing air_time. You need to account for this with na.rm 
# argument to mean when calculating the means over the multiple speeds per 
# route with possible NA's 
f %>% mutate( speed = distance / air_time ) %>% group_by( origin, dest ) %>% 
  summarize( meanSpeed = mean( speed, na.rm = TRUE ) )
```

```
# A tibble: 224 x 3
# Groups:   origin [3]
   origin dest  meanSpeed
   <chr>  <chr>     <dbl>
 1 EWR    ALB        4.54
 2 EWR    ANC        8.17
 3 EWR    ATL        6.71
 4 EWR    AUS        7.17
 5 EWR    AVL        6.54
 6 EWR    BDL        4.62
 7 EWR    BNA        6.59
 8 EWR    BOS        5.02
 9 EWR    BQN        8.10
10 EWR    BTV        5.78
# … with 214 more rows
```
…
```r
# We are interested in the airport codes (faa) and their names:  
( ap <- airports %>% select( faa, name ) ) 
```

```
# A tibble: 1,458 x 2
   faa   name                          
   <chr> <chr>                         
 1 04G   Lansdowne Airport             
 2 06A   Moton Field Municipal Airport 
 3 06C   Schaumburg Regional           
 4 06N   Randall Airport               
 5 09J   Jekyll Island Airport         
 6 0A9   Elizabethton Municipal Airport
 7 0G6   Williams County Airport       
 8 0G7   Finger Lakes Regional Airport 
 9 0P2   Shoestring Aviation Airfield  
10 0S9   Jefferson County Intl         
# … with 1,448 more rows
```
…
